{
  "name": "actorjs",
  "type": "local-server",
  "configurations": [
    "default",
    "test"
  ],
  "defaultSite": "start",
  "workers": [
    {
      "name": "server-test-case",
      "protocols": {
        "server": [
          "z-plugin-protocol-server-actorjs-cs"
        ]
      }
    }
  ],
  "pluginDatas": [
    "z-abs-corelayer-server",
    "z-abs-complayer-markup-server",
    "z-abs-complayer-codeeditor-server",
    "z-abs-complayer-documentation-server",
    "z-plugin-service-versioning-app-fs"
  ],
  "pluginServices": [
    "z-plugin-service-versioning-app-fs",
    "z-plugin-service-user-fs"
  ],
  "pluginComponents": [],
  "plugins": [],
  "httpServers": [
    {
      "name": "http-server",
      "type": "web & rest",
      "host": "127.0.0.1",
      "port": 9005,
      "testHost": "127.0.0.1",
      "testPort": 9105,
      "directories": [
        "./dist/html",
        "./dist/scripts",
        "./dist/css",
        "./dist/images",
        "./node_modules/@abstraktor/actorjs-documentation-bin",
        "./node_modules/@abstraktor/actorjs-documentation-text"
      ]
    }
  ],
  "wsWebServers": [
    {
      "name": "ws-web-server",
      "type": "rest",
      "host": "127.0.0.1",
      "port": 9006,
      "testHost": "127.0.0.1",
      "testPort": 9106,
      "protocols": [
        "z-plugin-protocol-server-actorjs-cs"
      ]
    }
  ]
}